<svg width="32" height="36" viewBox="0 0 32 36" fill="none" xmlns="http://www.w3.org/2000/svg">
<path d="M20.898 17.1C20.898 18.198 20.088 19.098 19.062 19.098C18.054 19.098 17.226 18.198 17.226 17.1C17.226 16.002 18.036 15.102 19.062 15.102C20.088 15.102 20.898 16.002 20.898 17.1ZM12.492 15.102C11.466 15.102 10.656 16.002 10.656 17.1C10.656 18.198 11.484 19.098 12.492 19.098C13.518 19.098 14.328 18.198 14.328 17.1C14.346 16.002 13.518 15.102 12.492 15.102ZM31.5 3.708V36C26.9653 31.9926 28.4155 33.3191 23.148 28.422L24.102 31.752H3.69C1.656 31.752 0 30.096 0 28.044V3.708C0 1.656 1.656 0 3.69 0H27.81C29.844 0 31.5 1.656 31.5 3.708ZM26.37 20.772C26.37 14.976 23.778 10.278 23.778 10.278C21.186 8.334 18.72 8.388 18.72 8.388L18.468 8.676C21.528 9.612 22.95 10.962 22.95 10.962C18.6742 8.61856 13.6516 8.61813 9.504 10.44C8.838 10.746 8.442 10.962 8.442 10.962C8.442 10.962 9.936 9.54 13.176 8.604L12.996 8.388C12.996 8.388 10.53 8.334 7.938 10.278C7.938 10.278 5.346 14.976 5.346 20.772C5.346 20.772 6.858 23.382 10.836 23.508C10.836 23.508 11.502 22.698 12.042 22.014C9.756 21.33 8.892 19.89 8.892 19.89C9.1568 20.0753 9.59344 20.3156 9.63 20.34C12.6682 22.0414 16.9838 22.5989 20.862 20.97C21.492 20.736 22.194 20.394 22.932 19.908C22.932 19.908 22.032 21.384 19.674 22.05C20.214 22.734 20.862 23.508 20.862 23.508C24.84 23.382 26.37 20.772 26.37 20.772Z" fill="white"/>
</svg>
